# Exported from ProBuilder
# http://www.procore3d.com/probuilder
# 2/9/2019 4:26:25 PM

mtllib ./Glass.mtl
o Glass

g Glass
v 3.25 0 52.03271
v 3 0 52.03271
v 3.25 4 52.03271
v 3 4 52.03271
v 3 0 52.03271
v 3 0 35.97295
v 3 4 52.03271
v 3 4 35.97295
v 3 0 35.97295
v 3.25 0 35.97295
v 3 4 35.97295
v 3.25 4 35.97295
v 3.25 0 35.97295
v 3.25 0 52.03271
v 3.25 4 35.97295
v 3.25 4 52.03271
v 3.25 4 52.03271
v 3 4 52.03271
v 3.25 4 35.97295
v 3 4 35.97295
v 3.25 0 35.97295
v 3 0 35.97295
v 3.25 0 52.03271
v 3 0 52.03271

vn 0 0 1
vn 0 0 1
vn 0 0 1
vn 0 0 1
vn -1 0 0
vn -1 0 0
vn -1 0 0
vn -1 0 0
vn 0 0 -1
vn 0 0 -1
vn 0 0 -1
vn 0 0 -1
vn 1 0 0
vn 1 0 0
vn 1 0 0
vn 1 0 0
vn 0 1 0
vn 0 1 0
vn 0 1 0
vn 0 1 0
vn 0 -1 0
vn 0 -1 0
vn 0 -1 0
vn 0 -1 0

vt -1.75 -2
vt -2 -2
vt -1.75 2
vt -2 2
vt 4.032715 -2
vt -12.02705 -2
vt 4.032715 2
vt -12.02705 2
vt 2 -2
vt 1.75 -2
vt 2 2
vt 1.75 2
vt 12.02705 -2
vt -4.032715 -2
vt 12.02705 2
vt -4.032715 2
vt 1.75 4.032715
vt 2 4.032715
vt 1.75 -12.02705
vt 2 -12.02705
vt -1.75 -12.02705
vt -2 -12.02705
vt -1.75 4.032715
vt -2 4.032715

g Glass
usemtl M_Glass
f 3/3/3 4/4/4 2/2/2 1/1/1
f 7/7/7 8/8/8 6/6/6 5/5/5
f 11/11/11 12/12/12 10/10/10 9/9/9
f 15/15/15 16/16/16 14/14/14 13/13/13
f 19/19/19 20/20/20 18/18/18 17/17/17
f 23/23/23 24/24/24 22/22/22 21/21/21

